%YAML 1.1
%TAG !u! tag:unity3d.com,2011:
--- !u!1045 &1
EditorBuildSettings:
  m_ObjectHideFlags: 0
  serializedVersion: 2
  m_Scenes:
  - enabled: 1
    path: Assets/Scenes/MainMenu.unity
    guid: 6575f182c258af84aad6b778c44d48d6
  - enabled: 1
    path: Assets/Scenes/Arena.unity
    guid: fa783d8509f56864692e0ae9b81f5445
  m_configObjects: {}
